-- Security 80

UMC 130nm

 1 |  82671.000000 20667.75
 2 |  92533.000000 23133.25
 4 | 111450.000000 27862.5
 8 | 150130.000000 37532.5
16 | 227875.000000 56968.75
24 | 304014.000000 76003.5

NanGate 15nm

 1 |   5067.767788 25775.9998983
 2 |   5632.966634 28650.7498881
 4 |   6749.847522 34331.4998474
 8 |   8968.863703 45617.9997915
16 |  13482.885046 68577.4996236
24 |  17914.920852 91119.9994507

-- Security 96

UMC 130nm

 1 |  83739.000000 20934.75
 2 |  94159.000000 23539.75
 4 | 114109.000000 28527.25
 8 | 154871.000000 38717.75
16 | 236981.000000 59245.25
24 | 316952.000000 79238.0

NanGate 15nm

 1 |   5113.282538 26007.4998881
 2 |   5746.900966 29230.2498678
 4 |   6923.796444 35216.2498169
 8 |   9278.816202 47194.4997253
16 |  14069.809061 71562.7495372
24 |  18815.778687 95701.9993439

-- Security 128

UMC 130nm

 1 |  91759.000000 22939.75
 2 | 103413.000000 25853.25
 4 | 125053.000000 31263.25
 8 | 170175.000000 42543.75
16 | 260535.000000 65133.75
24 | 349807.000000 87451.75

NanGate 15nm

 1 |   5583.667174 28399.9998678
 2 |   6342.426592 32259.2498372
 4 |   7625.293777 38784.2497609
 8 |  10264.706998 52208.9996236
16 |  15697.969026 79843.9993591
24 |  21012.381519 106874.4991
